<svg width="336" height="336" viewBox="0 0 336 336" fill="none" xmlns="http://www.w3.org/2000/svg">
<circle cx="168" cy="168" r="168" fill="#EAEAEA"/>
<path d="M167.034 94.6206C159.29 94.6206 151.719 96.9155 145.28 101.215C138.841 105.515 133.822 111.626 130.858 118.775C127.894 125.925 127.119 133.793 128.63 141.383C130.141 148.973 133.87 155.945 139.346 161.418C144.822 166.89 151.8 170.617 159.395 172.126C166.991 173.636 174.864 172.861 182.019 169.9C189.174 166.938 195.29 161.923 199.592 155.488C203.895 149.054 206.192 141.488 206.192 133.749C206.192 123.372 202.066 113.419 194.723 106.081C187.379 98.7431 177.42 94.6206 167.034 94.6206V94.6206ZM167.034 157.227C162.388 157.227 157.845 155.85 153.982 153.27C150.118 150.69 147.107 147.024 145.329 142.734C143.55 138.444 143.085 133.723 143.992 129.169C144.898 124.615 147.136 120.432 150.422 117.148C153.707 113.865 157.894 111.629 162.451 110.723C167.008 109.817 171.732 110.282 176.025 112.059C180.318 113.836 183.988 116.845 186.569 120.706C189.151 124.567 190.529 129.106 190.529 133.749C190.529 139.976 188.053 145.948 183.647 150.35C179.241 154.753 173.266 157.227 167.034 157.227V157.227ZM237.517 243.31V235.484C237.517 220.956 231.742 207.022 221.461 196.749C211.18 186.476 197.236 180.704 182.697 180.704H151.372C136.833 180.704 122.889 186.476 112.608 196.749C102.327 207.022 96.5517 220.956 96.5517 235.484V243.31H112.215V235.484C112.215 225.107 116.34 215.154 123.683 207.816C131.027 200.478 140.987 196.356 151.372 196.356H182.697C193.082 196.356 203.042 200.478 210.386 207.816C217.729 215.154 221.854 225.107 221.854 235.484V243.31H237.517Z" fill="black"/>
</svg>
